Alcaraz vs. Sinner: Who is the More Complete Player? – Sydney's Blog
…
Code

read_csv("atp_matches_2020.csv")

Rows: 1462 Columns: 49
── Column specification ────────────────────────────────────────────────────────
Delimiter: ","
chr (14): tourney_id, tourney_name, surface, tourney_level, winner_entry, wi...
dbl (35): draw_size, tourney_date, match_num, winner_id, winner_seed, winner...

ℹ Use `spec()` to retrieve the full column specification for this data.
ℹ Specify the column types or set `show_col_types = FALSE` to quiet this message.

# A tibble: 1,462 × 49
   tourney_id tourney_name surface draw_size tourney_level tourney_date
   <chr>      <chr>        <chr>       <dbl> <chr>                <dbl>
 1 2020-8888  Atp Cup      Hard           24 A                 20200106
 2 2020-8888  Atp Cup      Hard           24 A                 20200106
 3 2020-8888  Atp Cup      Hard           24 A                 20200106
 4 2020-8888  Atp Cup      Hard           24 A                 20200106
 5 2020-8888  Atp Cup      Hard           24 A                 20200106
 6 2020-8888  Atp Cup      Hard           24 A                 20200106
 7 2020-8888  Atp Cup      Hard           24 A                 20200106
 8 2020-8888  Atp Cup      Hard           24 A                 20200106
 9 2020-8888  Atp Cup      Hard           24 A                 20200106
10 2020-8888  Atp Cup      Hard           24 A                 20200106
# ℹ 1,452 more rows
# ℹ 43 more variables: match_num <dbl>, winner_id <dbl>, winner_seed <dbl>,
#   winner_entry <chr>, winner_name <chr>, winner_hand <chr>, winner_ht <dbl>,
#   winner_ioc <chr>, winner_age <dbl>, loser_id <dbl>, loser_seed <dbl>,
#   loser_entry <chr>, loser_name <chr>, loser_hand <chr>, loser_ht <dbl>,
#   loser_ioc <chr>, loser_age <dbl>, score <chr>, best_of <dbl>, round <chr>,
#   minutes <dbl>, w_ace <dbl>, w_df <dbl>, w_svpt <dbl>, w_1stIn <dbl>, …

Code

read_csv("atp_matches_2021.csv")

Rows: 2733 Columns: 49
── Column specification ────────────────────────────────────────────────────────
Delimiter: ","
chr (14): tourney_id, tourney_name, surface, tourney_level, winner_entry, wi...
dbl (35): draw_size, tourney_date, match_num, winner_id, winner_seed, winner...

ℹ Use `spec()` to retrieve the full column specification for this data.
ℹ Specify the column types or set `show_col_types = FALSE` to quiet this message.

# A tibble: 2,733 × 49
   tourney_id tourney_name   surface draw_size tourney_level tourney_date
   <chr>      <chr>          <chr>       <dbl> <chr>                <dbl>
 1 2021-0096  Tokyo Olympics Hard           64 A                 20210724
 2 2021-0096  Tokyo Olympics Hard           64 A                 20210724
 3 2021-0096  Tokyo Olympics Hard           64 A                 20210724
 4 2021-0096  Tokyo Olympics Hard           64 A                 20210724
 5 2021-0096  Tokyo Olympics Hard           64 A                 20210724
 6 2021-0096  Tokyo Olympics Hard           64 A                 20210724
 7 2021-0096  Tokyo Olympics Hard           64 A                 20210724
 8 2021-0096  Tokyo Olympics Hard           64 A                 20210724
 9 2021-0096  Tokyo Olympics Hard           64 A                 20210724
10 2021-0096  Tokyo Olympics Hard           64 A                 20210724
# ℹ 2,723 more rows
# ℹ 43 more variables: match_num <dbl>, winner_id <dbl>, winner_seed <dbl>,
#   winner_entry <chr>, winner_name <chr>, winner_hand <chr>, winner_ht <dbl>,
#   winner_ioc <chr>, winner_age <dbl>, loser_id <dbl>, loser_seed <dbl>,
#   loser_entry <chr>, loser_name <chr>, loser_hand <chr>, loser_ht <dbl>,
#   loser_ioc <chr>, loser_age <dbl>, score <chr>, best_of <dbl>, round <chr>,
#   minutes <dbl>, w_ace <dbl>, w_df <dbl>, w_svpt <dbl>, w_1stIn <dbl>, …

Code

read_csv("atp_matches_2022.csv")

Rows: 2917 Columns: 49
── Column specification ────────────────────────────────────────────────────────
Delimiter: ","
chr (14): tourney_id, tourney_name, surface, tourney_level, winner_entry, wi...
dbl (35): draw_size, tourney_date, match_num, winner_id, winner_seed, winner...

ℹ Use `spec()` to retrieve the full column specification for this data.
ℹ Specify the column types or set `show_col_types = FALSE` to quiet this message.

# A tibble: 2,917 × 49
   tourney_id tourney_name surface draw_size tourney_level tourney_date
   <chr>      <chr>        <chr>       <dbl> <chr>                <dbl>
 1 2022-8888  Atp Cup      Hard           16 A                 20220103
 2 2022-8888  Atp Cup      Hard           16 A                 20220103
 3 2022-8888  Atp Cup      Hard           16 A                 20220103
 4 2022-8888  Atp Cup      Hard           16 A                 20220103
 5 2022-8888  Atp Cup      Hard           16 A                 20220103
 6 2022-8888  Atp Cup      Hard           16 A                 20220103
 7 2022-8888  Atp Cup      Hard           16 A                 20220103
 8 2022-8888  Atp Cup      Hard           16 A                 20220103
 9 2022-8888  Atp Cup      Hard           16 A                 20220103
10 2022-8888  Atp Cup      Hard           16 A                 20220103
# ℹ 2,907 more rows
# ℹ 43 more variables: match_num <dbl>, winner_id <dbl>, winner_seed <dbl>,
#   winner_entry <chr>, winner_name <chr>, winner_hand <chr>, winner_ht <dbl>,
#   winner_ioc <chr>, winner_age <dbl>, loser_id <dbl>, loser_seed <dbl>,
#   loser_entry <chr>, loser_name <chr>, loser_hand <chr>, loser_ht <dbl>,
#   loser_ioc <chr>, loser_age <dbl>, score <chr>, best_of <dbl>, round <chr>,
#   minutes <dbl>, w_ace <dbl>, w_df <dbl>, w_svpt <dbl>, w_1stIn <dbl>, …

Code

read_csv("atp_matches_2023.csv")

Rows: 2986 Columns: 49
── Column specification ────────────────────────────────────────────────────────
Delimiter: ","
chr (14): tourney_id, tourney_name, surface, tourney_level, winner_entry, wi...
dbl (35): draw_size, tourney_date, match_num, winner_id, winner_seed, winner...

ℹ Use `spec()` to retrieve the full column specification for this data.
ℹ Specify the column types or set `show_col_types = FALSE` to quiet this message.

# A tibble: 2,986 × 49
   tourney_id tourney_name surface draw_size tourney_level tourney_date
   <chr>      <chr>        <chr>       <dbl> <chr>                <dbl>
 1 2023-9900  United Cup   Hard           18 A                 20230102
 2 2023-9900  United Cup   Hard           18 A                 20230102
 3 2023-9900  United Cup   Hard           18 A                 20230102
 4 2023-9900  United Cup   Hard           18 A                 20230102
 5 2023-9900  United Cup   Hard           18 A                 20230102
 6 2023-9900  United Cup   Hard           18 A                 20230102
 7 2023-9900  United Cup   Hard           18 A                 20230102
 8 2023-9900  United Cup   Hard           18 A                 20230102
 9 2023-9900  United Cup   Hard           18 A                 20230102
10 2023-9900  United Cup   Hard           18 A                 20230102
# ℹ 2,976 more rows
# ℹ 43 more variables: match_num <dbl>, winner_id <dbl>, winner_seed <dbl>,
#   winner_entry <chr>, winner_name <chr>, winner_hand <chr>, winner_ht <dbl>,
#   winner_ioc <chr>, winner_age <dbl>, loser_id <dbl>, loser_seed <dbl>,
#   loser_entry <chr>, loser_name <chr>, loser_hand <chr>, loser_ht <dbl>,
#   loser_ioc <chr>, loser_age <dbl>, score <chr>, best_of <dbl>, round <chr>,
#   minutes <dbl>, w_ace <dbl>, w_df <dbl>, w_svpt <dbl>, w_1stIn <dbl>, …

Code

read_csv("atp_matches_2024.csv")

Rows: 3076 Columns: 49
── Column specification ────────────────────────────────────────────────────────
Delimiter: ","
chr (14): tourney_id, tourney_name, surface, tourney_level, winner_entry, wi...
dbl (35): draw_size, tourney_date, match_num, winner_id, winner_seed, winner...

ℹ Use `spec()` to retrieve the full column specification for this data.
ℹ Specify the column types or set `show_col_types = FALSE` to quiet this message.

# A tibble: 3,076 × 49
   tourney_id tourney_name surface draw_size tourney_level tourney_date
   <chr>      <chr>        <chr>       <dbl> <chr>                <dbl>
 1 2024-0339  Brisbane     Hard           32 A                 20240101
 2 2024-0339  Brisbane     Hard           32 A                 20240101
 3 2024-0339  Brisbane     Hard           32 A                 20240101
 4 2024-0339  Brisbane     Hard           32 A                 20240101
 5 2024-0339  Brisbane     Hard           32 A                 20240101
 6 2024-0339  Brisbane     Hard           32 A                 20240101
 7 2024-0339  Brisbane     Hard           32 A                 20240101
 8 2024-0339  Brisbane     Hard           32 A                 20240101
 9 2024-0339  Brisbane     Hard           32 A                 20240101
10 2024-0339  Brisbane     Hard           32 A                 20240101
# ℹ 3,066 more rows
# ℹ 43 more variables: match_num <dbl>, winner_id <dbl>, winner_seed <dbl>,
#   winner_entry <chr>, winner_name <chr>, winner_hand <chr>, winner_ht <dbl>,
#   winner_ioc <chr>, winner_age <dbl>, loser_id <dbl>, loser_seed <dbl>,
#   loser_entry <chr>, loser_name <chr>, loser_hand <chr>, loser_ht <dbl>,
#   loser_ioc <chr>, loser_age <dbl>, score <chr>, best_of <dbl>, round <chr>,
#   minutes <dbl>, w_ace <dbl>, w_df <dbl>, w_svpt <dbl>, w_1stIn <dbl>, …
…
